…
we can create a new column with the results of `str_detect()` by using the name of a column with text
data as the first argument.


~~~
framed_fruit %>% 
  mutate(has_apple = str_detect(fruit_name, "apple"))
~~~
{: .language-r}



~~~
# A tibble: 80 x 2
   fruit_name   has_apple
   <chr>        <lgl>    
 1 apple        TRUE     
 2 apricot      FALSE    
 3 avocado      FALSE    
 4 banana       FALSE    
 5 bell pepper  FALSE    
 6 bilberry     FALSE    
 7 blackberry   FALSE    
 8 blackcurrant FALSE    
 9 blood orange FALSE    
10 blueberry    FALSE    
# … with 70 more rows
…
